/home/dell/Documents/singleton-maven/src/main/java/com/mark/test/ApplicationTest.java
/home/dell/Documents/singleton-maven/src/main/java/com/mark/Interface/ConnectionImpl.java
/home/dell/Documents/singleton-maven/src/main/java/com/mark/Service/ConfigurationService.java
/home/dell/Documents/singleton-maven/src/main/java/com/mark/Service/ConnectionService.java
/home/dell/Documents/singleton-maven/src/main/java/com/mark/main/Application.java
